%YAML 1.1
%TAG !u! tag:unity3d.com,2011:
--- !u!1045 &1
EditorBuildSettings:
  m_ObjectHideFlags: 0
  serializedVersion: 2
  m_Scenes:
  - enabled: 1
    path: Assets/Scenes/StartingScene.unity
    guid: 016e982afa3960640b0676619d0f5276
  - enabled: 1
    path: Assets/Scenes/GameScene.unity
    guid: 2cda990e2423bbf4892e6590ba056729
  - enabled: 1
    path: Assets/Scenes/MenuScene.unity
    guid: 2a2640ebdc57ae94d9c7fb6d82454cd8
  m_configObjects: {}
